<?xml version="1.0" encoding="utf-8"?>
<!-- Generator: Adobe Illustrator 25.2.3, SVG Export Plug-In . SVG Version: 6.00 Build 0)  -->
<svg version="1.1" id="Layer_2" xmlns="http://www.w3.org/2000/svg" xmlns:xlink="http://www.w3.org/1999/xlink" x="0px" y="0px"
	 viewBox="0 0 128 128" style="enable-background:new 0 0 128 128;" xml:space="preserve">
<path style="fill:#94A61D;" d="M5.35,78.58c0.29,8.9,14.31,9.69,21.42,15c9.72,7.25,13.51,21.75,24.72,26.04s27.03,6.43,45.15,2.31
	s28.43-14.81,25.38-25.71c-3.79-13.51-20.76-26.7-54.38-30.32s-51.08,1.98-54.87,3.46C8.98,70.84,5.19,73.48,5.35,78.58z"/>
<path style="fill:#B7D118;" d="M20.84,75.45c0.78,4.23,10.22,4.94,16.48,13.02s8.9,14.87,18.29,18.62
	c6.59,2.64,19.15,5.8,38.89-0.33c21.75-6.76,17.44-28.13-16.48-35.26C45.89,64.74,19.69,69.19,20.84,75.45z"/>
<path style="fill:#4A4A29;" d="M67.57,81.62c-6.13-0.27-10.37,1.6-10.37,6.04c0,3.79,4.6,5.41,10.37,5.41
	c6.95,0,8.84-2.98,8.75-5.59C76.22,84.51,74.08,81.91,67.57,81.62z"/>
<path style="fill:#F7C875;" d="M66.59,3.75c-1.71,0-2.44,1.08-2.44,2.35c0,1.9,0,81,0,81s0.71,1.05,2.61,1.05
	c1.89,0,2.62-1.05,2.62-1.05L69.02,5.38C69.02,5.38,68.67,3.75,66.59,3.75z"/>
<path style="fill:#FF4F28;" d="M117.29,16.92c0.26,0.44-3.01,4.02-7.77,6.68c-6.13,3.43-16.96,8.21-22.37,10.28
	c-5.41,2.07-10.32,3.77-13.08,5.32c-2.06,1.16-4.51,4.69-5.05,4.24c-0.28-0.24-0.32-10.59-0.43-20.36
	C68.49,14.15,68.76,6,68.93,5.83c0.36-0.36,1.17-0.63,1.9,0s6.8,3.39,15.28,5.91s15.68,4.21,21.72,4.48
	C113.87,16.49,117.02,16.47,117.29,16.92z"/>
</svg>
<!--
	(c) Copyright 2014-2021 Google Inc.
	SPDX-License-Identifier: Apache-2.0

	Copied verbatim from the Noto fonts package:
	https://github.com/googlefonts/noto-emoji/blob/main/svg/emoji_u26f3.svg
 -->
